{
    "name": "root",
    "gauges": {
        "Flappy.Policy.Entropy.mean": {
            "value": 0.06091050058603287,
            "min": 0.002055949764326215,
            "max": 0.6930702328681946,
            "count": 483
        },
        "Flappy.Policy.ExtrinsicValueEstimate.mean": {
            "value": 0.7623159289360046,
            "min": 0.027447348460555077,
            "max": 2.097588300704956,
            "count": 483
        },
        "Flappy.Environment.EpisodeLength.mean": {
            "value": 67.0,
            "min": 0.0,
            "max": 284.0,
            "count": 319
        },
        "Flappy.Environment.CumulativeReward.mean": {
            "value": 0.8799999443193277,
            "min": 0.03999999910593033,
            "max": 42.279996037483215,
            "count": 396
        },
        "Flappy.Policy.ExtrinsicReward.mean": {
            "value": 0.8799999443193277,
            "min": 0.03999999910593033,
            "max": 42.279996037483215,
            "count": 396
        },
        "Flappy.IsTraining.mean": {
            "value": 1.0,
            "min": 1.0,
            "max": 1.0,
            "count": 483
        },
        "Flappy.Losses.PolicyLoss.mean": {
            "value": 0.13989167642527414,
            "min": 0.12019442497694399,
            "max": 0.16575499502262878,
            "count": 23
        },
        "Flappy.Losses.ValueLoss.mean": {
            "value": 0.1543538329230311,
            "min": 0.016749251504930167,
            "max": 0.1543538329230311,
            "count": 23
        },
        "Flappy.Policy.LearningRate.mean": {
            "value": 0.002713710009543,
            "min": 0.002713710009543,
            "max": 0.0029874120004195993,
            "count": 23
        },
        "Flappy.Policy.Epsilon.mean": {
            "value": 0.19045700000000002,
            "min": 0.19045700000000002,
            "max": 0.1995804,
            "count": 23
        },
        "Flappy.Policy.Beta.mean": {
            "value": 0.00045323929999999997,
            "min": 0.00045323929999999997,
            "max": 0.0004979439600000001,
            "count": 23
        }
    },
    "metadata": {
        "timer_format_version": "0.1.0",
        "start_time_seconds": "1611667428",
        "python_version": "3.8.5 (default, Jul 28 2020, 12:59:40) \n[GCC 9.3.0]",
        "command_line_arguments": "/home/leon/Dokumente/Projekte/designopti/.venv/bin/mlagents-learn config/flappy.yaml --run-id=Flappy18",
        "mlagents_version": "0.23.0",
        "mlagents_envs_version": "0.23.0",
        "communication_protocol_version": "1.3.0",
        "pytorch_version": "1.7.1",
        "numpy_version": "1.19.5",
        "end_time_seconds": "1611667916"
    },
    "total": 487.2103746089997,
    "count": 1,
    "self": 0.004649241003789939,
    "children": {
        "run_training.setup": {
            "total": 0.0056597090006107464,
            "count": 1,
            "self": 0.0056597090006107464
        },
        "TrainerController.start_learning": {
            "total": 487.2000656589953,
            "count": 1,
            "self": 1.6342895829875488,
            "children": {
                "TrainerController._reset_env": {
                    "total": 12.181665513999178,
                    "count": 1,
                    "self": 12.181665513999178
                },
                "TrainerController.advance": {
                    "total": 473.30350264100707,
                    "count": 48351,
                    "self": 0.8167835485510295,
                    "children": {
                        "env_step": {
                            "total": 472.48671909245604,
                            "count": 48351,
                            "self": 361.3096451027086,
                            "children": {
                                "SubprocessEnvManager._take_step": {
                                    "total": 110.32080024643074,
                                    "count": 48351,
                                    "self": 4.157529085932765,
                                    "children": {
                                        "TorchPolicy.evaluate": {
                                            "total": 106.16327116049797,
                                            "count": 48351,
                                            "self": 26.71556220722414,
                                            "children": {
                                                "TorchPolicy.sample_actions": {
                                                    "total": 79.44770895327383,
                                                    "count": 48351,
                                                    "self": 79.44770895327383
                                                }
                                            }
                                        }
                                    }
                                },
                                "workers": {
                                    "total": 0.8562737433167058,
                                    "count": 48350,
                                    "self": 0.0,
                                    "children": {
                                        "worker_root": {
                                            "total": 484.3509646158782,
                                            "count": 48350,
                                            "is_parallel": true,
                                            "self": 208.29721102078474,
                                            "children": {
                                                "run_training.setup": {
                                                    "total": 0.0,
                                                    "count": 0,
                                                    "is_parallel": true,
                                                    "self": 0.0,
                                                    "children": {
                                                        "steps_from_proto": {
                                                            "total": 0.0008597539999755099,
                                                            "count": 1,
                                                            "is_parallel": true,
                                                            "self": 0.00037141898792469874,
                                                            "children": {
                                                                "_process_vector_observation": {
                                                                    "total": 0.0004883350120508112,
                                                                    "count": 4,
                                                                    "is_parallel": true,
                                                                    "self": 0.0004883350120508112
                                                                }
                                                            }
                                                        },
                                                        "UnityEnvironment.step": {
                                                            "total": 0.035164006003469694,
                                                            "count": 1,
                                                            "is_parallel": true,
                                                            "self": 0.00013661000411957502,
                                                            "children": {
                                                                "UnityEnvironment._generate_step_input": {
                                                                    "total": 0.00023348200193140656,
                                                                    "count": 1,
                                                                    "is_parallel": true,
                                                                    "self": 0.00023348200193140656
                                                                },
                                                                "communicator.exchange": {
                                                                    "total": 0.03445112999906996,
                                                                    "count": 1,
                                                                    "is_parallel": true,
                                                                    "self": 0.03445112999906996
                                                                },
                                                                "steps_from_proto": {
                                                                    "total": 0.0003427839983487502,
                                                                    "count": 1,
                                                                    "is_parallel": true,
                                                                    "self": 0.00015958900621626526,
                                                                    "children": {
                                                                        "_process_vector_observation": {
                                                                            "total": 0.0001831949921324849,
                                                                            "count": 4,
                                                                            "is_parallel": true,
                                                                            "self": 0.0001831949921324849
                                                                        }
                                                                    }
                                                                }
                                                            }
                                                        }
                                                    }
                                                },
                                                "UnityEnvironment.step": {
                                                    "total": 276.05375359509344,
                                                    "count": 48349,
                                                    "is_parallel": true,
                                                    "self": 8.258549423422664,
                                                    "children": {
                                                        "UnityEnvironment._generate_step_input": {
                                                            "total": 7.457790681124607,
                                                            "count": 48349,
                                                            "is_parallel": true,
                                                            "self": 7.457790681124607
                                                        },
                                                        "communicator.exchange": {
                                                            "total": 229.9610321270011,
                                                            "count": 48349,
                                                            "is_parallel": true,
                                                            "self": 229.9610321270011
                                                        },
                                                        "steps_from_proto": {
                                                            "total": 30.37638136354508,
                                                            "count": 48349,
                                                            "is_parallel": true,
                                                            "self": 14.552986096576205,
                                                            "children": {
                                                                "_process_vector_observation": {
                                                                    "total": 15.823395266968873,
                                                                    "count": 193396,
                                                                    "is_parallel": true,
                                                                    "self": 15.823395266968873
                                                                }
                                                            }
                                                        }
                                                    }
                                                }
                                            }
                                        }
                                    }
                                }
                            }
                        }
                    }
                },
                "trainer_threads": {
                    "total": 6.153099820949137e-05,
                    "count": 1,
                    "self": 6.153099820949137e-05,
                    "children": {
                        "thread_root": {
                            "total": 0.0,
                            "count": 0,
                            "is_parallel": true,
                            "self": 0.0,
                            "children": {
                                "trainer_advance": {
                                    "total": 467.990225874375,
                                    "count": 527170,
                                    "is_parallel": true,
                                    "self": 11.823392857520957,
                                    "children": {
                                        "process_trajectory": {
                                            "total": 303.65960608084424,
                                            "count": 527170,
                                            "is_parallel": true,
                                            "self": 303.65960608084424
                                        },
                                        "_update_policy": {
                                            "total": 152.50722693600983,
                                            "count": 23,
                                            "is_parallel": true,
                                            "self": 4.4381140770201455,
                                            "children": {
                                                "TorchPPOOptimizer.update": {
                                                    "total": 148.06911285898968,
                                                    "count": 4449,
                                                    "is_parallel": true,
                                                    "self": 148.06911285898968
                                                }
                                            }
                                        }
                                    }
                                }
                            }
                        }
                    }
                },
                "TrainerController._save_models": {
                    "total": 0.08054639000329189,
                    "count": 1,
                    "self": 0.0008545169985154644,
                    "children": {
                        "RLTrainer._checkpoint": {
                            "total": 0.07969187300477643,
                            "count": 1,
                            "self": 0.07969187300477643
                        }
                    }
                }
            }
        }
    }
}