{
    "Flappy": {
        "checkpoints": [
            {
                "steps": 499955,
                "file_path": "results/test3/Flappy/Flappy-499955.onnx",
                "reward": null,
                "creation_time": 1610992077.9707234
            },
            {
                "steps": 500851,
                "file_path": "results/test3/Flappy/Flappy-500851.onnx",
                "reward": null,
                "creation_time": 1610992078.1226547
            }
        ],
        "final_checkpoint": {
            "steps": 500851,
            "file_path": "results/test3/Flappy.onnx",
            "reward": null,
            "creation_time": 1610992078.1226547
        }
    },
    "metadata": {
        "stats_format_version": "0.2.0",
        "mlagents_version": "0.23.0",
        "torch_version": "1.7.1",
        "tensorflow_version": -1
    }
}