{
    "name": "root",
    "gauges": {
        "Flappy.Policy.Entropy.mean": {
            "value": 0.09757718443870544,
            "min": 0.0001613629428902641,
            "max": 0.6931450963020325,
            "count": 4979
        },
        "Flappy.Policy.ExtrinsicValueEstimate.mean": {
            "value": 3.7758708000183105,
            "min": -0.5242164134979248,
            "max": 3.9269347190856934,
            "count": 5000
        },
        "Flappy.Environment.EpisodeLength.mean": {
            "value": 13.0,
            "min": 0.0,
            "max": 11835.0,
            "count": 1309
        },
        "Flappy.Environment.CumulativeReward.mean": {
            "value": 30.679997101426125,
            "min": -0.6900000274181366,
            "max": 233.13997764885426,
            "count": 1573
        },
        "Flappy.Policy.ExtrinsicReward.mean": {
            "value": 30.679997101426125,
            "min": -0.6900000274181366,
            "max": 233.13997764885426,
            "count": 1573
        },
        "Flappy.IsTraining.mean": {
            "value": 1.0,
            "min": 1.0,
            "max": 1.0,
            "count": 5000
        },
        "Flappy.Losses.PolicyLoss.mean": {
            "value": 0.14096900012645155,
            "min": 0.11972320086489885,
            "max": 0.16487981933460105,
            "count": 239
        },
        "Flappy.Losses.ValueLoss.mean": {
            "value": 0.043481473185385415,
            "min": 0.015072656845530639,
            "max": 0.3599675922111298,
            "count": 239
        },
        "Flappy.Policy.LearningRate.mean": {
            "value": 3.223967860000051e-08,
            "min": 3.223967860000051e-08,
            "max": 9.958040419600001e-06,
            "count": 239
        },
        "Flappy.Policy.Epsilon.mean": {
            "value": 0.10032140000000002,
            "min": 0.10032140000000002,
            "max": 0.1995804,
            "count": 239
        },
        "Flappy.Policy.Beta.mean": {
            "value": 1.0289260000000002e-05,
            "min": 1.0289260000000002e-05,
            "max": 9.962236e-05,
            "count": 239
        }
    },
    "metadata": {
        "timer_format_version": "0.1.0",
        "start_time_seconds": "1611741811",
        "python_version": "3.8.5 (default, Jul 28 2020, 12:59:40) \n[GCC 9.3.0]",
        "command_line_arguments": "/home/leon/Dokumente/Projekte/designopti/.venv/bin/mlagents-learn config/flappy4.yaml --run-id=Flappy25 --force",
        "mlagents_version": "0.23.0",
        "mlagents_envs_version": "0.23.0",
        "communication_protocol_version": "1.3.0",
        "pytorch_version": "1.7.1",
        "numpy_version": "1.19.5",
        "end_time_seconds": "1611745903"
    },
    "total": 4091.3573965169926,
    "count": 1,
    "self": 0.005904306992306374,
    "children": {
        "run_training.setup": {
            "total": 0.005174517995328642,
            "count": 1,
            "self": 0.005174517995328642
        },
        "TrainerController.start_learning": {
            "total": 4091.346317692005,
            "count": 1,
            "self": 17.537910428422038,
            "children": {
                "TrainerController._reset_env": {
                    "total": 6.265622139995685,
                    "count": 1,
                    "self": 6.265622139995685
                },
                "TrainerController.advance": {
                    "total": 4067.467368838581,
                    "count": 500072,
                    "self": 9.03568924528372,
                    "children": {
                        "env_step": {
                            "total": 4058.4316795932973,
                            "count": 500072,
                            "self": 2875.0733939666243,
                            "children": {
                                "SubprocessEnvManager._take_step": {
                                    "total": 1173.9907352645096,
                                    "count": 500072,
                                    "self": 44.3003657128138,
                                    "children": {
                                        "TorchPolicy.evaluate": {
                                            "total": 1129.6903695516958,
                                            "count": 500072,
                                            "self": 280.6763769153622,
                                            "children": {
                                                "TorchPolicy.sample_actions": {
                                                    "total": 849.0139926363336,
                                                    "count": 500072,
                                                    "self": 849.0139926363336
                                                }
                                            }
                                        }
                                    }
                                },
                                "workers": {
                                    "total": 9.367550362163456,
                                    "count": 500072,
                                    "self": 0.0,
                                    "children": {
                                        "worker_root": {
                                            "total": 4063.2648654779914,
                                            "count": 500072,
                                            "is_parallel": true,
                                            "self": 1935.651522103377,
                                            "children": {
                                                "run_training.setup": {
                                                    "total": 0.0,
                                                    "count": 0,
                                                    "is_parallel": true,
                                                    "self": 0.0,
                                                    "children": {
                                                        "steps_from_proto": {
                                                            "total": 0.0012589709949679673,
                                                            "count": 1,
                                                            "is_parallel": true,
                                                            "self": 0.000570398973650299,
                                                            "children": {
                                                                "_process_vector_observation": {
                                                                    "total": 0.0006885720213176683,
                                                                    "count": 4,
                                                                    "is_parallel": true,
                                                                    "self": 0.0006885720213176683
                                                                }
                                                            }
                                                        },
                                                        "UnityEnvironment.step": {
                                                            "total": 0.02667465599370189,
                                                            "count": 1,
                                                            "is_parallel": true,
                                                            "self": 0.0001245280000148341,
                                                            "children": {
                                                                "UnityEnvironment._generate_step_input": {
                                                                    "total": 0.0001899700000649318,
                                                                    "count": 1,
                                                                    "is_parallel": true,
                                                                    "self": 0.0001899700000649318
                                                                },
                                                                "communicator.exchange": {
                                                                    "total": 0.026000611993367784,
                                                                    "count": 1,
                                                                    "is_parallel": true,
                                                                    "self": 0.026000611993367784
                                                                },
                                                                "steps_from_proto": {
                                                                    "total": 0.00035954600025434047,
                                                                    "count": 1,
                                                                    "is_parallel": true,
                                                                    "self": 0.00017216001288034022,
                                                                    "children": {
                                                                        "_process_vector_observation": {
                                                                            "total": 0.00018738598737400025,
                                                                            "count": 4,
                                                                            "is_parallel": true,
                                                                            "self": 0.00018738598737400025
                                                                        }
                                                                    }
                                                                }
                                                            }
                                                        }
                                                    }
                                                },
                                                "UnityEnvironment.step": {
                                                    "total": 2127.6133433746145,
                                                    "count": 500071,
                                                    "is_parallel": true,
                                                    "self": 84.20745653170161,
                                                    "children": {
                                                        "UnityEnvironment._generate_step_input": {
                                                            "total": 75.22799917560769,
                                                            "count": 500071,
                                                            "is_parallel": true,
                                                            "self": 75.22799917560769
                                                        },
                                                        "communicator.exchange": {
                                                            "total": 1662.1489553605206,
                                                            "count": 500071,
                                                            "is_parallel": true,
                                                            "self": 1662.1489553605206
                                                        },
                                                        "steps_from_proto": {
                                                            "total": 306.02893230678455,
                                                            "count": 500071,
                                                            "is_parallel": true,
                                                            "self": 146.17817512607144,
                                                            "children": {
                                                                "_process_vector_observation": {
                                                                    "total": 159.85075718071312,
                                                                    "count": 2000284,
                                                                    "is_parallel": true,
                                                                    "self": 159.85075718071312
                                                                }
                                                            }
                                                        }
                                                    }
                                                }
                                            }
                                        }
                                    }
                                }
                            }
                        }
                    }
                },
                "trainer_threads": {
                    "total": 5.748000694438815e-05,
                    "count": 1,
                    "self": 5.748000694438815e-05,
                    "children": {
                        "thread_root": {
                            "total": 0.0,
                            "count": 0,
                            "is_parallel": true,
                            "self": 0.0,
                            "children": {
                                "trainer_advance": {
                                    "total": 4035.598677386617,
                                    "count": 3926549,
                                    "is_parallel": true,
                                    "self": 83.63967831376067,
                                    "children": {
                                        "process_trajectory": {
                                            "total": 1935.9938714177842,
                                            "count": 3926549,
                                            "is_parallel": true,
                                            "self": 1935.8211824767786,
                                            "children": {
                                                "RLTrainer._checkpoint": {
                                                    "total": 0.17268894100561738,
                                                    "count": 1,
                                                    "is_parallel": true,
                                                    "self": 0.17268894100561738
                                                }
                                            }
                                        },
                                        "_update_policy": {
                                            "total": 2015.9651276550721,
                                            "count": 239,
                                            "is_parallel": true,
                                            "self": 47.73735310067423,
                                            "children": {
                                                "TorchPPOOptimizer.update": {
                                                    "total": 1968.227774554398,
                                                    "count": 46467,
                                                    "is_parallel": true,
                                                    "self": 1968.227774554398
                                                }
                                            }
                                        }
                                    }
                                }
                            }
                        }
                    }
                },
                "TrainerController._save_models": {
                    "total": 0.07535880499926861,
                    "count": 1,
                    "self": 0.0012108520022593439,
                    "children": {
                        "RLTrainer._checkpoint": {
                            "total": 0.07414795299700927,
                            "count": 1,
                            "self": 0.07414795299700927
                        }
                    }
                }
            }
        }
    }
}