{
    "name": "root",
    "gauges": {
        "Flappy.Policy.Entropy.mean": {
            "value": 0.024958526715636253,
            "min": -1.1920928244535389e-07,
            "max": 0.6931276321411133,
            "count": 4990
        },
        "Flappy.Environment.EpisodeLength.mean": {
            "value": 1704.0,
            "min": 0.0,
            "max": 21169.0,
            "count": 490
        },
        "Flappy.Policy.ExtrinsicValueEstimate.mean": {
            "value": 18.91083335876465,
            "min": -0.14953377842903137,
            "max": 19.0739803314209,
            "count": 5000
        },
        "Flappy.Environment.CumulativeReward.mean": {
            "value": 322.92999110370874,
            "min": -0.43999998830258846,
            "max": 4020.339888572693,
            "count": 585
        },
        "Flappy.Policy.ExtrinsicReward.mean": {
            "value": 322.92999110370874,
            "min": -0.43999998830258846,
            "max": 4020.339888572693,
            "count": 585
        },
        "Flappy.IsTraining.mean": {
            "value": 1.0,
            "min": 1.0,
            "max": 1.0,
            "count": 5000
        },
        "Flappy.Losses.PolicyLoss.mean": {
            "value": 0.1381583609947502,
            "min": 0.061628213319268946,
            "max": 0.1666009648364376,
            "count": 238
        },
        "Flappy.Losses.ValueLoss.mean": {
            "value": 0.0051091940858344915,
            "min": 0.004397543458823077,
            "max": 10.06545025912615,
            "count": 238
        },
        "Flappy.Policy.LearningRate.mean": {
            "value": 1.1190996270000034e-06,
            "min": 1.1190996270000034e-06,
            "max": 0.0002987658004113999,
            "count": 238
        },
        "Flappy.Policy.Epsilon.mean": {
            "value": 0.100373,
            "min": 0.100373,
            "max": 0.1995886,
            "count": 238
        },
        "Flappy.Policy.Beta.mean": {
            "value": 1.03357e-05,
            "min": 1.03357e-05,
            "max": 9.962974000000002e-05,
            "count": 238
        }
    },
    "metadata": {
        "timer_format_version": "0.1.0",
        "start_time_seconds": "1611678732",
        "python_version": "3.8.5 (default, Jul 28 2020, 12:59:40) \n[GCC 9.3.0]",
        "command_line_arguments": "/home/leon/Dokumente/Projekte/designopti/.venv/bin/mlagents-learn config/flappy3.yaml --run-id=Flappy22",
        "mlagents_version": "0.23.0",
        "mlagents_envs_version": "0.23.0",
        "communication_protocol_version": "1.3.0",
        "pytorch_version": "1.7.1",
        "numpy_version": "1.19.5",
        "end_time_seconds": "1611683840"
    },
    "total": 5107.862113837997,
    "count": 1,
    "self": 0.009096016001421958,
    "children": {
        "run_training.setup": {
            "total": 0.006523178002680652,
            "count": 1,
            "self": 0.006523178002680652
        },
        "TrainerController.start_learning": {
            "total": 5107.846494643993,
            "count": 1,
            "self": 17.977546410955256,
            "children": {
                "TrainerController._reset_env": {
                    "total": 6.281631867001124,
                    "count": 1,
                    "self": 6.281631867001124
                },
                "TrainerController.advance": {
                    "total": 5083.48959052904,
                    "count": 502369,
                    "self": 9.52155893597228,
                    "children": {
                        "env_step": {
                            "total": 5073.968031593067,
                            "count": 502369,
                            "self": 3854.0010328240023,
                            "children": {
                                "SubprocessEnvManager._take_step": {
                                    "total": 1210.4493037609427,
                                    "count": 502369,
                                    "self": 45.5043210034346,
                                    "children": {
                                        "TorchPolicy.evaluate": {
                                            "total": 1164.9449827575081,
                                            "count": 500065,
                                            "self": 292.9969038732306,
                                            "children": {
                                                "TorchPolicy.sample_actions": {
                                                    "total": 871.9480788842775,
                                                    "count": 500065,
                                                    "self": 871.9480788842775
                                                }
                                            }
                                        }
                                    }
                                },
                                "workers": {
                                    "total": 9.517695008122246,
                                    "count": 502369,
                                    "self": 0.0,
                                    "children": {
                                        "worker_root": {
                                            "total": 5078.9708590394,
                                            "count": 502369,
                                            "is_parallel": true,
                                            "self": 1968.3395606623671,
                                            "children": {
                                                "run_training.setup": {
                                                    "total": 0.0,
                                                    "count": 0,
                                                    "is_parallel": true,
                                                    "self": 0.0,
                                                    "children": {
                                                        "steps_from_proto": {
                                                            "total": 0.0012941739987581968,
                                                            "count": 1,
                                                            "is_parallel": true,
                                                            "self": 0.0006016199986333959,
                                                            "children": {
                                                                "_process_vector_observation": {
                                                                    "total": 0.000692554000124801,
                                                                    "count": 4,
                                                                    "is_parallel": true,
                                                                    "self": 0.000692554000124801
                                                                }
                                                            }
                                                        },
                                                        "UnityEnvironment.step": {
                                                            "total": 0.0271241380032734,
                                                            "count": 1,
                                                            "is_parallel": true,
                                                            "self": 0.00013263100845506415,
                                                            "children": {
                                                                "UnityEnvironment._generate_step_input": {
                                                                    "total": 0.00025904399808496237,
                                                                    "count": 1,
                                                                    "is_parallel": true,
                                                                    "self": 0.00025904399808496237
                                                                },
                                                                "communicator.exchange": {
                                                                    "total": 0.026360763993579894,
                                                                    "count": 1,
                                                                    "is_parallel": true,
                                                                    "self": 0.026360763993579894
                                                                },
                                                                "steps_from_proto": {
                                                                    "total": 0.0003716990031534806,
                                                                    "count": 1,
                                                                    "is_parallel": true,
                                                                    "self": 0.0001787959990906529,
                                                                    "children": {
                                                                        "_process_vector_observation": {
                                                                            "total": 0.00019290300406282768,
                                                                            "count": 4,
                                                                            "is_parallel": true,
                                                                            "self": 0.00019290300406282768
                                                                        }
                                                                    }
                                                                }
                                                            }
                                                        }
                                                    }
                                                },
                                                "UnityEnvironment.step": {
                                                    "total": 3110.631298377033,
                                                    "count": 502368,
                                                    "is_parallel": true,
                                                    "self": 88.0318702094446,
                                                    "children": {
                                                        "UnityEnvironment._generate_step_input": {
                                                            "total": 76.09710179433023,
                                                            "count": 502368,
                                                            "is_parallel": true,
                                                            "self": 76.09710179433023
                                                        },
                                                        "communicator.exchange": {
                                                            "total": 2635.425496827833,
                                                            "count": 502368,
                                                            "is_parallel": true,
                                                            "self": 2635.425496827833
                                                        },
                                                        "steps_from_proto": {
                                                            "total": 311.0768295454254,
                                                            "count": 502368,
                                                            "is_parallel": true,
                                                            "self": 147.70953293696948,
                                                            "children": {
                                                                "_process_vector_observation": {
                                                                    "total": 163.36729660845594,
                                                                    "count": 2009472,
                                                                    "is_parallel": true,
                                                                    "self": 163.36729660845594
                                                                }
                                                            }
                                                        }
                                                    }
                                                }
                                            }
                                        }
                                    }
                                }
                            }
                        }
                    }
                },
                "trainer_threads": {
                    "total": 4.0996994357556105e-05,
                    "count": 1,
                    "self": 4.0996994357556105e-05,
                    "children": {
                        "thread_root": {
                            "total": 0.0,
                            "count": 0,
                            "is_parallel": true,
                            "self": 0.0,
                            "children": {
                                "trainer_advance": {
                                    "total": 5063.624910729013,
                                    "count": 2676101,
                                    "is_parallel": true,
                                    "self": 63.64051294798992,
                                    "children": {
                                        "process_trajectory": {
                                            "total": 2100.5426489020756,
                                            "count": 2676101,
                                            "is_parallel": true,
                                            "self": 2100.3705600170797,
                                            "children": {
                                                "RLTrainer._checkpoint": {
                                                    "total": 0.17208888499590103,
                                                    "count": 1,
                                                    "is_parallel": true,
                                                    "self": 0.17208888499590103
                                                }
                                            }
                                        },
                                        "_update_policy": {
                                            "total": 2899.4417488789477,
                                            "count": 238,
                                            "is_parallel": true,
                                            "self": 50.14535391377285,
                                            "children": {
                                                "TorchPPOOptimizer.update": {
                                                    "total": 2849.296394965175,
                                                    "count": 46506,
                                                    "is_parallel": true,
                                                    "self": 2849.296394965175
                                                }
                                            }
                                        }
                                    }
                                }
                            }
                        }
                    }
                },
                "TrainerController._save_models": {
                    "total": 0.09768484000233002,
                    "count": 1,
                    "self": 0.000829513999633491,
                    "children": {
                        "RLTrainer._checkpoint": {
                            "total": 0.09685532600269653,
                            "count": 1,
                            "self": 0.09685532600269653
                        }
                    }
                }
            }
        }
    }
}