{
    "name": "root",
    "gauges": {
        "Flappy.Policy.Entropy.mean": {
            "value": -1.1920928244535389e-07,
            "min": -1.1920928244535389e-07,
            "max": 0.6931396126747131,
            "count": 3277
        },
        "Flappy.Policy.ExtrinsicValueEstimate.mean": {
            "value": -0.1820748746395111,
            "min": -2.3393731117248535,
            "max": 0.9286065101623535,
            "count": 3278
        },
        "Flappy.Environment.EpisodeLength.mean": {
            "value": 24.0,
            "min": 0.0,
            "max": 235.0,
            "count": 2620
        },
        "Flappy.Environment.CumulativeReward.mean": {
            "value": -0.010000081732869148,
            "min": -0.7066666682561239,
            "max": 8.447998881340027,
            "count": 3239
        },
        "Flappy.Policy.ExtrinsicReward.mean": {
            "value": -0.010000081732869148,
            "min": -0.7066666682561239,
            "max": 8.447998881340027,
            "count": 3239
        },
        "Flappy.IsTraining.mean": {
            "value": 1.0,
            "min": 1.0,
            "max": 1.0,
            "count": 3278
        },
        "Flappy.Losses.PolicyLoss.mean": {
            "value": 0.1437455235621504,
            "min": 0.11724452482788668,
            "max": 0.17519419649033807,
            "count": 159
        },
        "Flappy.Losses.ValueLoss.mean": {
            "value": 2.9773095026423374e-07,
            "min": 2.932949074533712e-07,
            "max": 3.42267689624658,
            "count": 159
        },
        "Flappy.Policy.LearningRate.mean": {
            "value": 0.0013675950544135,
            "min": 0.0013675950544135,
            "max": 0.0029897400003420006,
            "count": 159
        },
        "Flappy.Policy.Epsilon.mean": {
            "value": 0.14558650000000004,
            "min": 0.14558650000000004,
            "max": 0.19965799999999997,
            "count": 159
        },
        "Flappy.Policy.Beta.mean": {
            "value": 0.00023337384999999993,
            "min": 0.00023337384999999993,
            "max": 0.0004983241999999999,
            "count": 159
        }
    },
    "metadata": {
        "timer_format_version": "0.1.0",
        "start_time_seconds": "1611148949",
        "python_version": "3.8.5 (default, Jul 28 2020, 12:59:40) \n[GCC 9.3.0]",
        "command_line_arguments": "/home/leon/Dokumente/Projekte/designopti/.venv/bin/mlagents-learn config/flappy.yaml --run-id=Flappy11 --force",
        "mlagents_version": "0.23.0",
        "mlagents_envs_version": "0.23.0",
        "communication_protocol_version": "1.3.0",
        "pytorch_version": "1.7.1",
        "numpy_version": "1.19.5",
        "end_time_seconds": "1611152340"
    },
    "total": 3391.04772800699,
    "count": 1,
    "self": 0.009228859998984262,
    "children": {
        "run_training.setup": {
            "total": 0.006057738995878026,
            "count": 1,
            "self": 0.006057738995878026
        },
        "TrainerController.start_learning": {
            "total": 3391.032441407995,
            "count": 1,
            "self": 11.68287992029218,
            "children": {
                "TrainerController._reset_env": {
                    "total": 6.692882211005781,
                    "count": 1,
                    "self": 6.692882211005781
                },
                "TrainerController.advance": {
                    "total": 3372.526814116718,
                    "count": 327917,
                    "self": 5.940513552923221,
                    "children": {
                        "env_step": {
                            "total": 3366.586300563795,
                            "count": 327917,
                            "self": 2574.979849411262,
                            "children": {
                                "SubprocessEnvManager._take_step": {
                                    "total": 785.4410700012522,
                                    "count": 327917,
                                    "self": 29.597972564806696,
                                    "children": {
                                        "TorchPolicy.evaluate": {
                                            "total": 755.8430974364455,
                                            "count": 327917,
                                            "self": 191.29996249618125,
                                            "children": {
                                                "TorchPolicy.sample_actions": {
                                                    "total": 564.5431349402643,
                                                    "count": 327917,
                                                    "self": 564.5431349402643
                                                }
                                            }
                                        }
                                    }
                                },
                                "workers": {
                                    "total": 6.165381151280599,
                                    "count": 327916,
                                    "self": 0.0,
                                    "children": {
                                        "worker_root": {
                                            "total": 3371.8817310188897,
                                            "count": 327916,
                                            "is_parallel": true,
                                            "self": 1429.4175334915053,
                                            "children": {
                                                "run_training.setup": {
                                                    "total": 0.0,
                                                    "count": 0,
                                                    "is_parallel": true,
                                                    "self": 0.0,
                                                    "children": {
                                                        "steps_from_proto": {
                                                            "total": 0.0006882919988129288,
                                                            "count": 1,
                                                            "is_parallel": true,
                                                            "self": 0.00031086697708815336,
                                                            "children": {
                                                                "_process_vector_observation": {
                                                                    "total": 0.00037742502172477543,
                                                                    "count": 4,
                                                                    "is_parallel": true,
                                                                    "self": 0.00037742502172477543
                                                                }
                                                            }
                                                        },
                                                        "UnityEnvironment.step": {
                                                            "total": 0.028318666998529807,
                                                            "count": 1,
                                                            "is_parallel": true,
                                                            "self": 0.00018438397091813385,
                                                            "children": {
                                                                "UnityEnvironment._generate_step_input": {
                                                                    "total": 0.00019367100321687758,
                                                                    "count": 1,
                                                                    "is_parallel": true,
                                                                    "self": 0.00019367100321687758
                                                                },
                                                                "communicator.exchange": {
                                                                    "total": 0.02724421801394783,
                                                                    "count": 1,
                                                                    "is_parallel": true,
                                                                    "self": 0.02724421801394783
                                                                },
                                                                "steps_from_proto": {
                                                                    "total": 0.0006963940104469657,
                                                                    "count": 1,
                                                                    "is_parallel": true,
                                                                    "self": 0.0003344030410517007,
                                                                    "children": {
                                                                        "_process_vector_observation": {
                                                                            "total": 0.000361990969395265,
                                                                            "count": 4,
                                                                            "is_parallel": true,
                                                                            "self": 0.000361990969395265
                                                                        }
                                                                    }
                                                                }
                                                            }
                                                        }
                                                    }
                                                },
                                                "UnityEnvironment.step": {
                                                    "total": 1942.4641975273844,
                                                    "count": 327915,
                                                    "is_parallel": true,
                                                    "self": 57.15651683424949,
                                                    "children": {
                                                        "UnityEnvironment._generate_step_input": {
                                                            "total": 50.65214773450862,
                                                            "count": 327915,
                                                            "is_parallel": true,
                                                            "self": 50.65214773450862
                                                        },
                                                        "communicator.exchange": {
                                                            "total": 1624.3524562076782,
                                                            "count": 327915,
                                                            "is_parallel": true,
                                                            "self": 1624.3524562076782
                                                        },
                                                        "steps_from_proto": {
                                                            "total": 210.3030767509481,
                                                            "count": 327915,
                                                            "is_parallel": true,
                                                            "self": 100.35782293634838,
                                                            "children": {
                                                                "_process_vector_observation": {
                                                                    "total": 109.94525381459971,
                                                                    "count": 1311660,
                                                                    "is_parallel": true,
                                                                    "self": 109.94525381459971
                                                                }
                                                            }
                                                        }
                                                    }
                                                }
                                            }
                                        }
                                    }
                                }
                            }
                        }
                    }
                },
                "trainer_threads": {
                    "total": 4.9098976887762547e-05,
                    "count": 1,
                    "self": 4.9098976887762547e-05,
                    "children": {
                        "thread_root": {
                            "total": 0.0,
                            "count": 0,
                            "is_parallel": true,
                            "self": 0.0,
                            "children": {
                                "trainer_advance": {
                                    "total": 3337.5799082394806,
                                    "count": 3388694,
                                    "is_parallel": true,
                                    "self": 78.88800784089835,
                                    "children": {
                                        "process_trajectory": {
                                            "total": 2279.1594139187946,
                                            "count": 3388694,
                                            "is_parallel": true,
                                            "self": 2279.1594139187946
                                        },
                                        "_update_policy": {
                                            "total": 979.5324864797876,
                                            "count": 159,
                                            "is_parallel": true,
                                            "self": 32.189787686336786,
                                            "children": {
                                                "TorchPPOOptimizer.update": {
                                                    "total": 947.3426987934508,
                                                    "count": 30561,
                                                    "is_parallel": true,
                                                    "self": 947.3426987934508
                                                }
                                            }
                                        }
                                    }
                                }
                            }
                        }
                    }
                },
                "TrainerController._save_models": {
                    "total": 0.12981606100220233,
                    "count": 1,
                    "self": 0.0010422540071886033,
                    "children": {
                        "RLTrainer._checkpoint": {
                            "total": 0.12877380699501373,
                            "count": 1,
                            "self": 0.12877380699501373
                        }
                    }
                }
            }
        }
    }
}