{
    "name": "root",
    "gauges": {
        "Flappy.Policy.Entropy.mean": {
            "value": -1.1920928244535389e-07,
            "min": -1.1920928244535389e-07,
            "max": 0.6931155920028687,
            "count": 647
        },
        "Flappy.Policy.ExtrinsicValueEstimate.mean": {
            "value": 0.22782036662101746,
            "min": -0.5195210576057434,
            "max": 0.7642158269882202,
            "count": 647
        },
        "Flappy.Environment.EpisodeLength.mean": {
            "value": 24.0,
            "min": 0.0,
            "max": 67.0,
            "count": 523
        },
        "Flappy.Environment.CumulativeReward.mean": {
            "value": 0.4999999087303877,
            "min": -0.5800000131130219,
            "max": 1.3399998508393764,
            "count": 647
        },
        "Flappy.Policy.ExtrinsicReward.mean": {
            "value": 0.4999999087303877,
            "min": -0.5800000131130219,
            "max": 1.3399998508393764,
            "count": 647
        },
        "Flappy.IsTraining.mean": {
            "value": 1.0,
            "min": 1.0,
            "max": 1.0,
            "count": 647
        },
        "Flappy.Losses.PolicyLoss.mean": {
            "value": 0.147618209196177,
            "min": 0.1237569749452329,
            "max": 0.15405328212640224,
            "count": 31
        },
        "Flappy.Losses.ValueLoss.mean": {
            "value": 1.5821274375049654e-06,
            "min": 1.5821274375049654e-06,
            "max": 0.08509588239666743,
            "count": 31
        },
        "Flappy.Policy.LearningRate.mean": {
            "value": 0.0026159160128028,
            "min": 0.0026159160128028,
            "max": 0.0029875140004161993,
            "count": 31
        },
        "Flappy.Policy.Epsilon.mean": {
            "value": 0.18719719999999998,
            "min": 0.18719719999999998,
            "max": 0.19958380000000003,
            "count": 31
        },
        "Flappy.Policy.Beta.mean": {
            "value": 0.0004372662800000001,
            "min": 0.0004372662800000001,
            "max": 0.0004979606199999999,
            "count": 31
        }
    },
    "metadata": {
        "timer_format_version": "0.1.0",
        "start_time_seconds": "1611844917",
        "python_version": "3.8.5 (default, Jul 28 2020, 12:59:40) \n[GCC 9.3.0]",
        "command_line_arguments": "/home/leon/Dokumente/Projekte/designopti/.venv/bin/mlagents-learn config/flappy6.yaml --run-id=Flappy29 --force",
        "mlagents_version": "0.23.0",
        "mlagents_envs_version": "0.23.0",
        "communication_protocol_version": "1.3.0",
        "pytorch_version": "1.7.1",
        "numpy_version": "1.19.5",
        "end_time_seconds": "1611845682"
    },
    "total": 765.3860003749724,
    "count": 1,
    "self": 0.004725369974039495,
    "children": {
        "run_training.setup": {
            "total": 0.00800528799300082,
            "count": 1,
            "self": 0.00800528799300082
        },
        "TrainerController.start_learning": {
            "total": 765.3732697170053,
            "count": 1,
            "self": 2.87512070153025,
            "children": {
                "TrainerController._reset_env": {
                    "total": 6.879876894992776,
                    "count": 1,
                    "self": 6.879876894992776
                },
                "TrainerController.advance": {
                    "total": 755.5170004674874,
                    "count": 64717,
                    "self": 1.8311630975222215,
                    "children": {
                        "env_step": {
                            "total": 753.6858373699652,
                            "count": 64717,
                            "self": 556.4476815242087,
                            "children": {
                                "SubprocessEnvManager._take_step": {
                                    "total": 195.56214032747084,
                                    "count": 64717,
                                    "self": 7.338087561452994,
                                    "children": {
                                        "TorchPolicy.evaluate": {
                                            "total": 188.22405276601785,
                                            "count": 64717,
                                            "self": 48.57305350236129,
                                            "children": {
                                                "TorchPolicy.sample_actions": {
                                                    "total": 139.65099926365656,
                                                    "count": 64717,
                                                    "self": 139.65099926365656
                                                }
                                            }
                                        }
                                    }
                                },
                                "workers": {
                                    "total": 1.676015518285567,
                                    "count": 64716,
                                    "self": 0.0,
                                    "children": {
                                        "worker_root": {
                                            "total": 760.9663964466017,
                                            "count": 64716,
                                            "is_parallel": true,
                                            "self": 349.4687046899053,
                                            "children": {
                                                "run_training.setup": {
                                                    "total": 0.0,
                                                    "count": 0,
                                                    "is_parallel": true,
                                                    "self": 0.0,
                                                    "children": {
                                                        "steps_from_proto": {
                                                            "total": 0.0017489830206613988,
                                                            "count": 1,
                                                            "is_parallel": true,
                                                            "self": 0.000783557043178007,
                                                            "children": {
                                                                "_process_vector_observation": {
                                                                    "total": 0.0009654259774833918,
                                                                    "count": 4,
                                                                    "is_parallel": true,
                                                                    "self": 0.0009654259774833918
                                                                }
                                                            }
                                                        },
                                                        "UnityEnvironment.step": {
                                                            "total": 0.027084232977358624,
                                                            "count": 1,
                                                            "is_parallel": true,
                                                            "self": 0.0002047069719992578,
                                                            "children": {
                                                                "UnityEnvironment._generate_step_input": {
                                                                    "total": 0.00037533100112341344,
                                                                    "count": 1,
                                                                    "is_parallel": true,
                                                                    "self": 0.00037533100112341344
                                                                },
                                                                "communicator.exchange": {
                                                                    "total": 0.025834619998931885,
                                                                    "count": 1,
                                                                    "is_parallel": true,
                                                                    "self": 0.025834619998931885
                                                                },
                                                                "steps_from_proto": {
                                                                    "total": 0.0006695750053040683,
                                                                    "count": 1,
                                                                    "is_parallel": true,
                                                                    "self": 0.0003258840006310493,
                                                                    "children": {
                                                                        "_process_vector_observation": {
                                                                            "total": 0.00034369100467301905,
                                                                            "count": 4,
                                                                            "is_parallel": true,
                                                                            "self": 0.00034369100467301905
                                                                        }
                                                                    }
                                                                }
                                                            }
                                                        }
                                                    }
                                                },
                                                "UnityEnvironment.step": {
                                                    "total": 411.49769175669644,
                                                    "count": 64715,
                                                    "is_parallel": true,
                                                    "self": 12.916647420497611,
                                                    "children": {
                                                        "UnityEnvironment._generate_step_input": {
                                                            "total": 11.207285421725828,
                                                            "count": 64715,
                                                            "is_parallel": true,
                                                            "self": 11.207285421725828
                                                        },
                                                        "communicator.exchange": {
                                                            "total": 341.4610205706558,
                                                            "count": 64715,
                                                            "is_parallel": true,
                                                            "self": 341.4610205706558
                                                        },
                                                        "steps_from_proto": {
                                                            "total": 45.91273834381718,
                                                            "count": 64715,
                                                            "is_parallel": true,
                                                            "self": 21.934772381850053,
                                                            "children": {
                                                                "_process_vector_observation": {
                                                                    "total": 23.97796596196713,
                                                                    "count": 258860,
                                                                    "is_parallel": true,
                                                                    "self": 23.97796596196713
                                                                }
                                                            }
                                                        }
                                                    }
                                                }
                                            }
                                        }
                                    }
                                }
                            }
                        }
                    }
                },
                "trainer_threads": {
                    "total": 5.908700404688716e-05,
                    "count": 1,
                    "self": 5.908700404688716e-05,
                    "children": {
                        "thread_root": {
                            "total": 0.0,
                            "count": 0,
                            "is_parallel": true,
                            "self": 0.0,
                            "children": {
                                "trainer_advance": {
                                    "total": 744.7222132252937,
                                    "count": 690414,
                                    "is_parallel": true,
                                    "self": 24.018171723291744,
                                    "children": {
                                        "process_trajectory": {
                                            "total": 508.3839344470762,
                                            "count": 690414,
                                            "is_parallel": true,
                                            "self": 508.3839344470762
                                        },
                                        "_update_policy": {
                                            "total": 212.32010705492576,
                                            "count": 31,
                                            "is_parallel": true,
                                            "self": 7.2483824810769875,
                                            "children": {
                                                "TorchPPOOptimizer.update": {
                                                    "total": 205.07172457384877,
                                                    "count": 5982,
                                                    "is_parallel": true,
                                                    "self": 205.07172457384877
                                                }
                                            }
                                        }
                                    }
                                }
                            }
                        }
                    }
                },
                "TrainerController._save_models": {
                    "total": 0.10121256599086337,
                    "count": 1,
                    "self": 0.001029820996336639,
                    "children": {
                        "RLTrainer._checkpoint": {
                            "total": 0.10018274499452673,
                            "count": 1,
                            "self": 0.10018274499452673
                        }
                    }
                }
            }
        }
    }
}