{
    "Flappy": {
        "checkpoints": [
            {
                "steps": 64714,
                "file_path": "results/Flappy29/Flappy/Flappy-64714.onnx",
                "reward": 0.4999999087303877,
                "creation_time": 1611845682.5497239
            }
        ],
        "final_checkpoint": {
            "steps": 64714,
            "file_path": "results/Flappy29/Flappy.onnx",
            "reward": 0.4999999087303877,
            "creation_time": 1611845682.5497239
        }
    },
    "metadata": {
        "stats_format_version": "0.2.0",
        "mlagents_version": "0.23.0",
        "torch_version": "1.7.1",
        "tensorflow_version": -1
    }
}