{
    "name": "root",
    "gauges": {
        "Flappy.Policy.Entropy.mean": {
            "value": -1.1920928244535389e-07,
            "min": -1.1920928244535389e-07,
            "max": 0.6931430697441101,
            "count": 598
        },
        "Flappy.Environment.EpisodeLength.mean": {
            "value": 8.0,
            "min": 0.0,
            "max": 426.0,
            "count": 434
        },
        "Flappy.Policy.ExtrinsicValueEstimate.mean": {
            "value": -0.9276705980300903,
            "min": -0.9276705980300903,
            "max": 3.907092571258545,
            "count": 601
        },
        "Flappy.Environment.CumulativeReward.mean": {
            "value": -0.9549999833106995,
            "min": -0.9549999833106995,
            "max": 29.337000370025635,
            "count": 487
        },
        "Flappy.Policy.ExtrinsicReward.mean": {
            "value": -0.9549999833106995,
            "min": -0.9549999833106995,
            "max": 29.337000370025635,
            "count": 487
        },
        "Flappy.IsTraining.mean": {
            "value": 1.0,
            "min": 1.0,
            "max": 1.0,
            "count": 601
        },
        "Flappy.Losses.PolicyLoss.mean": {
            "value": 0.14133358943702964,
            "min": 0.1244543566184196,
            "max": 0.17669394415376397,
            "count": 29
        },
        "Flappy.Losses.ValueLoss.mean": {
            "value": 0.0006732167706028728,
            "min": 0.0006732167706028728,
            "max": 8.29031765460968,
            "count": 29
        },
        "Flappy.Policy.LearningRate.mean": {
            "value": 0.0026403780119874,
            "min": 0.0026403780119874,
            "max": 0.0029875920004136,
            "count": 29
        },
        "Flappy.Policy.Epsilon.mean": {
            "value": 0.1880126,
            "min": 0.1880126,
            "max": 0.19958640000000002,
            "count": 29
        },
        "Flappy.Policy.Beta.mean": {
            "value": 0.00044126173999999995,
            "min": 0.00044126173999999995,
            "max": 0.0004979733599999999,
            "count": 29
        }
    },
    "metadata": {
        "timer_format_version": "0.1.0",
        "start_time_seconds": "1611051907",
        "python_version": "3.8.5 (default, Jul 28 2020, 12:59:40) \n[GCC 9.3.0]",
        "command_line_arguments": "/home/leon/Dokumente/Projekte/designopti/.venv/bin/mlagents-learn config/flappy.yaml --run-id=Flappy4 --force",
        "mlagents_version": "0.23.0",
        "mlagents_envs_version": "0.23.0",
        "communication_protocol_version": "1.3.0",
        "pytorch_version": "1.7.1",
        "numpy_version": "1.19.5",
        "end_time_seconds": "1611052751"
    },
    "total": 844.1665016759944,
    "count": 1,
    "self": 0.004603219000273384,
    "children": {
        "run_training.setup": {
            "total": 0.005455086997244507,
            "count": 1,
            "self": 0.005455086997244507
        },
        "TrainerController.start_learning": {
            "total": 844.1564433699969,
            "count": 1,
            "self": 2.0692734322074102,
            "children": {
                "TrainerController._reset_env": {
                    "total": 5.563221966003766,
                    "count": 1,
                    "self": 5.563221966003766
                },
                "TrainerController.advance": {
                    "total": 836.4182942207844,
                    "count": 63570,
                    "self": 1.1198598237388069,
                    "children": {
                        "env_step": {
                            "total": 835.2984343970456,
                            "count": 63570,
                            "self": 696.5887125194567,
                            "children": {
                                "SubprocessEnvManager._take_step": {
                                    "total": 137.53051349877205,
                                    "count": 63570,
                                    "self": 5.189490995107917,
                                    "children": {
                                        "TorchPolicy.evaluate": {
                                            "total": 132.34102250366414,
                                            "count": 60163,
                                            "self": 33.80645509822352,
                                            "children": {
                                                "TorchPolicy.sample_actions": {
                                                    "total": 98.53456740544061,
                                                    "count": 60163,
                                                    "self": 98.53456740544061
                                                }
                                            }
                                        }
                                    }
                                },
                                "workers": {
                                    "total": 1.1792083788168384,
                                    "count": 63569,
                                    "self": 0.0,
                                    "children": {
                                        "worker_root": {
                                            "total": 837.3828089815652,
                                            "count": 63569,
                                            "is_parallel": true,
                                            "self": 255.7670059225493,
                                            "children": {
                                                "run_training.setup": {
                                                    "total": 0.0,
                                                    "count": 0,
                                                    "is_parallel": true,
                                                    "self": 0.0,
                                                    "children": {
                                                        "steps_from_proto": {
                                                            "total": 0.000670694003929384,
                                                            "count": 1,
                                                            "is_parallel": true,
                                                            "self": 0.00029738800367340446,
                                                            "children": {
                                                                "_process_vector_observation": {
                                                                    "total": 0.0003733060002559796,
                                                                    "count": 4,
                                                                    "is_parallel": true,
                                                                    "self": 0.0003733060002559796
                                                                }
                                                            }
                                                        },
                                                        "UnityEnvironment.step": {
                                                            "total": 0.02517583999724593,
                                                            "count": 1,
                                                            "is_parallel": true,
                                                            "self": 0.0001896920002764091,
                                                            "children": {
                                                                "UnityEnvironment._generate_step_input": {
                                                                    "total": 0.00023725299979560077,
                                                                    "count": 1,
                                                                    "is_parallel": true,
                                                                    "self": 0.00023725299979560077
                                                                },
                                                                "communicator.exchange": {
                                                                    "total": 0.02418289499473758,
                                                                    "count": 1,
                                                                    "is_parallel": true,
                                                                    "self": 0.02418289499473758
                                                                },
                                                                "steps_from_proto": {
                                                                    "total": 0.0005660000024363399,
                                                                    "count": 1,
                                                                    "is_parallel": true,
                                                                    "self": 0.0002676350122783333,
                                                                    "children": {
                                                                        "_process_vector_observation": {
                                                                            "total": 0.00029836499015800655,
                                                                            "count": 4,
                                                                            "is_parallel": true,
                                                                            "self": 0.00029836499015800655
                                                                        }
                                                                    }
                                                                }
                                                            }
                                                        }
                                                    }
                                                },
                                                "UnityEnvironment.step": {
                                                    "total": 581.6158030590159,
                                                    "count": 63568,
                                                    "is_parallel": true,
                                                    "self": 10.960562382359058,
                                                    "children": {
                                                        "UnityEnvironment._generate_step_input": {
                                                            "total": 9.420361486176262,
                                                            "count": 63568,
                                                            "is_parallel": true,
                                                            "self": 9.420361486176262
                                                        },
                                                        "communicator.exchange": {
                                                            "total": 521.3246249176736,
                                                            "count": 63568,
                                                            "is_parallel": true,
                                                            "self": 521.3246249176736
                                                        },
                                                        "steps_from_proto": {
                                                            "total": 39.910254272806924,
                                                            "count": 63568,
                                                            "is_parallel": true,
                                                            "self": 18.62526771373814,
                                                            "children": {
                                                                "_process_vector_observation": {
                                                                    "total": 21.284986559068784,
                                                                    "count": 254272,
                                                                    "is_parallel": true,
                                                                    "self": 21.284986559068784
                                                                }
                                                            }
                                                        }
                                                    }
                                                }
                                            }
                                        }
                                    }
                                }
                            }
                        }
                    }
                },
                "trainer_threads": {
                    "total": 2.5842004106380045e-05,
                    "count": 1,
                    "self": 2.5842004106380045e-05,
                    "children": {
                        "thread_root": {
                            "total": 0.0,
                            "count": 0,
                            "is_parallel": true,
                            "self": 0.0,
                            "children": {
                                "trainer_advance": {
                                    "total": 827.8181833939598,
                                    "count": 826647,
                                    "is_parallel": true,
                                    "self": 17.940654483318212,
                                    "children": {
                                        "process_trajectory": {
                                            "total": 593.4577028816129,
                                            "count": 826647,
                                            "is_parallel": true,
                                            "self": 593.4577028816129
                                        },
                                        "_update_policy": {
                                            "total": 216.41982602902863,
                                            "count": 29,
                                            "is_parallel": true,
                                            "self": 6.159913447976578,
                                            "children": {
                                                "TorchPPOOptimizer.update": {
                                                    "total": 210.25991258105205,
                                                    "count": 5586,
                                                    "is_parallel": true,
                                                    "self": 210.25991258105205
                                                }
                                            }
                                        }
                                    }
                                }
                            }
                        }
                    }
                },
                "TrainerController._save_models": {
                    "total": 0.10562790899712127,
                    "count": 1,
                    "self": 0.0010178090014960617,
                    "children": {
                        "RLTrainer._checkpoint": {
                            "total": 0.1046100999956252,
                            "count": 1,
                            "self": 0.1046100999956252
                        }
                    }
                }
            }
        }
    }
}